project 1
…
I decided to reshape my data after I had merged them. I ran a really simple untidy task which worked well. However, when I attempted to retidy, I was met with the error below. To my understanding, it is saying that R doesn’t know how to place each observation due to duplicate values.

#reshaping ---> untidy dataset

joinedTerrors %>% pivot_longer(cols=c("Country", "Group"), names_to = "Vars", values_to = "AllInfo") -> newUntidyJoined

#retidying
newUntidyJoined %>% pivot_wider(names_from = "Vars", values_from = "AllInfo")  

## Warning: Values in `AllInfo` are not uniquely identified; output will contain list-cols.
## * Use `values_fn = list(AllInfo = list)` to suppress this warning.
## * Use `values_fn = list(AllInfo = length)` to identify where the duplicates arise
## * Use `values_fn = list(AllInfo = summary_fun)` to summarise duplicates

## # A tibble: 69 x 12
##    Date                 year month   day city  AttackType City  StrYear Ideology
##    <dttm>              <int> <int> <int> <fct> <fct>      <fct>   <int> <fct>   
##  1 NA                     NA    NA    NA <NA>  <NA>       "Pen…    1862 Other   
##  2 NA                     NA    NA    NA <NA>  <NA>       Mosc…    1864 Anarchi…
##  3 NA                     NA    NA    NA <NA>  <NA>       Huna…    1870 Other   
##  4 1995-02-10 00:00:00  1995     2    10 Srin… Assassina… Decc…    1875 Nationa…
##  5 1986-06-15 00:00:00  1986     6    15 Bast… Bombing/E… Paris    1880 Anarchi…
##  6 NA                     NA    NA    NA <NA>  <NA>       New …    1881 Nationa…
##  7 NA                     NA    NA    NA <NA>  <NA>       "Tok…    1881 Nationa…
##  8 NA                     NA    NA    NA <NA>  <NA>       Dubl…    1881 Nationa…
##  9 NA                     NA    NA    NA <NA>  <NA>       Wars…    1882 Leftist 
## 10 1973-06-30 00:00:00  1973     7     0 madr… Bombing/E… Anda…    1882 Anarchi…
## # … with 59 more rows, and 3 more variables: Ambiguous <int>,
## #   Country <list<chr>>, Group <list<chr>>
…
## # A tibble: 2 x 12
## # Groups:   City [1]
##   Date                 year month   day city  AttackType City  StrYear Ideology
##   <dttm>              <int> <int> <int> <fct> <fct>      <fct>   <int> <fct>   
## 1 NA                     NA    NA    NA <NA>  <NA>       Beir…    1964 Nationa…
## 2 NA                     NA    NA    NA <NA>  <NA>       Beir…    1964 Nationa…
## # … with 3 more variables: Ambiguous <int>, Vars <chr>, AllInfo <chr>

## Warning: Values in `AllInfo` are not uniquely identified; output will contain list-cols.
## * Use `values_fn = list(AllInfo = list)` to suppress this warning.
## * Use `values_fn = list(AllInfo = length)` to identify where the duplicates arise
## * Use `values_fn = list(AllInfo = summary_fun)` to summarise duplicates

## # A tibble: 68 x 12
##    Date                 year month   day city  AttackType City  StrYear Ideology
##    <dttm>              <int> <int> <int> <fct> <fct>      <fct>   <int> <fct>   
##  1 NA                     NA    NA    NA <NA>  <NA>       "Pen…    1862 Other   
##  2 NA                     NA    NA    NA <NA>  <NA>       Mosc…    1864 Anarchi…
##  3 NA                     NA    NA    NA <NA>  <NA>       Huna…    1870 Other   
##  4 1995-02-10 00:00:00  1995     2    10 Srin… Assassina… Decc…    1875 Nationa…
##  5 1986-06-15 00:00:00  1986     6    15 Bast… Bombing/E… Paris    1880 Anarchi…
##  6 NA                     NA    NA    NA <NA>  <NA>       New …    1881 Nationa…
##  7 NA                     NA    NA    NA <NA>  <NA>       "Tok…    1881 Nationa…
##  8 NA                     NA    NA    NA <NA>  <NA>       Dubl…    1881 Nationa…
##  9 NA                     NA    NA    NA <NA>  <NA>       Wars…    1882 Leftist 
## 10 1973-06-30 00:00:00  1973     7     0 madr… Bombing/E… Anda…    1882 Anarchi…
## # … with 58 more rows, and 3 more variables: Ambiguous <int>,
## #   Country <list<chr>>, Group <list<chr>>
…
